id,screen_name,pagerank
19426551,NFL,10.64756721870084
877998277,TheFBBible,3.082499999999999
58905046,drinelli,2.5555
39129998,OptimumScouting,2.4492499999999997
26257166,SportsCenter,2.3557499999999996
